{
    "name": "Shout",
    "fields": [
        {
            "fieldName": "title",
            "fieldType": "String"
        },
        {
            "fieldName": "description",
            "fieldType": "String"
        },
        {
            "fieldName": "longitude",
            "fieldType": "Double"
        },
        {
            "fieldName": "latitude",
            "fieldType": "Double"
        },
        {
            "fieldName": "dateCreated",
            "fieldType": "ZonedDateTime"
        }
    ],
    "relationships": [
        {
            "relationshipType": "one-to-one",
            "otherEntityName": "image",
            "otherEntityRelationshipName": "shout",
            "relationshipName": "image",
            "otherEntityField": "id",
            "ownerSide": true
        },
        {
            "relationshipType": "one-to-many",
            "otherEntityName": "comment",
            "otherEntityRelationshipName": "shout",
            "relationshipName": "comment"
        },
        {
            "relationshipType": "one-to-many",
            "otherEntityName": "tag",
            "otherEntityRelationshipName": "shout",
            "relationshipName": "tag"
        },
        {
            "relationshipType": "many-to-one",
            "otherEntityName": "userAccount",
            "otherEntityRelationshipName": "myShout",
            "relationshipName": "owner",
            "otherEntityField": "id"
        },
        {
            "relationshipType": "many-to-many",
            "otherEntityName": "userAccount",
            "otherEntityRelationshipName": "likedShout",
            "relationshipName": "liker",
            "otherEntityField": "id",
            "ownerSide": false
        }
    ],
    "changelogDate": "20190512165241",
    "entityTableName": "shout",
    "dto": "no",
    "pagination": "no",
    "service": "no",
    "jpaMetamodelFiltering": false,
    "fluentMethods": true,
    "clientRootFolder": "",
    "applications": "*"
}