id;image_data;image_data_content_type
1;506f6c616e64;image/png
2;4f7574646f6f7273;image/png
3;436f72706f72617465205068617365642072656c6174696f6e7368697073;image/png
4;53616c616420576562207669727475616c;image/png
5;6d61726f6f6e;image/png
6;737570706f727420476f7267656f7573;image/png
7;636f7079696e67;image/png
8;6d6167656e746120436f6e6372657465;image/png
9;4d6175726974616e6961;image/png
10;4275636b696e6768616d7368697265206361706162696c697479207a65726f20746f6c6572616e6365;image/png
