id;username;first_name;last_name
1;mobile Fish;Orval;Metz
2;Table Computer;Anderson;Koch
3;seamless Metal deposit;Anabelle;Wisozk
4;parsing red Chips;Christelle;Morissette
5;Home Loan Account;Adaline;Keeling
6;intangible;Leopold;Jacobi
7;Gorgeous Frozen Pants;Darlene;Klocko
8;bluetooth;Cody;Homenick
9;Planner Canyon;Ryleigh;Moen
10;Table Small Frozen Sausages Planner;Raheem;Hoppe
